<mxfile host="Electron" modified="2024-02-07T12:03:18.005Z" agent="Mozilla/5.0 (X11; Linux x86_64) AppleWebKit/537.36 (KHTML, like Gecko) draw.io/23.0.2 Chrome/120.0.6099.109 Electron/28.1.0 Safari/537.36" etag="APSwdYMYLcKCkNEd85-E" version="23.0.2" type="device">
  <diagram name="Page-1" id="EoxHWZr0twRthKtffBHo">
    <mxGraphModel dx="1390" dy="843" grid="1" gridSize="10" guides="1" tooltips="1" connect="1" arrows="1" fold="1" page="1" pageScale="1" pageWidth="1200" pageHeight="700" math="0" shadow="0">
      <root>
        <mxCell id="0" />
        <mxCell id="1" parent="0" />
        <mxCell id="FlRXm82P0fpReIWR0Wfg-3" value="" style="curved=1;endArrow=classic;html=1;rounded=0;exitX=1;exitY=1;exitDx=0;exitDy=0;strokeColor=#E6E6E6;strokeWidth=23;startArrow=oval;startFill=1;" edge="1" parent="1" source="OdSW-93VraJenFSrQYa_-3">
          <mxGeometry width="50" height="50" relative="1" as="geometry">
            <mxPoint x="570" y="460" as="sourcePoint" />
            <mxPoint x="239" y="347" as="targetPoint" />
            <Array as="points">
              <mxPoint x="990" y="150" />
              <mxPoint x="980" y="500" />
            </Array>
          </mxGeometry>
        </mxCell>
        <mxCell id="OdSW-93VraJenFSrQYa_-34" value="" style="rounded=1;whiteSpace=wrap;html=1;fillColor=none;dashed=1;strokeColor=#6c8ebf;strokeWidth=2;" parent="1" vertex="1">
          <mxGeometry x="105" y="90" width="440" height="400" as="geometry" />
        </mxCell>
        <mxCell id="OdSW-93VraJenFSrQYa_-3" value="Système&lt;br&gt;d&#39;information" style="rounded=0;whiteSpace=wrap;html=1;strokeWidth=2;fillColor=#dae8fc;strokeColor=#6c8ebf;" parent="1" vertex="1">
          <mxGeometry x="135" y="130" width="130" height="70" as="geometry" />
        </mxCell>
        <mxCell id="OdSW-93VraJenFSrQYa_-20" style="edgeStyle=orthogonalEdgeStyle;rounded=0;orthogonalLoop=1;jettySize=auto;html=1;exitX=1;exitY=0.5;exitDx=0;exitDy=0;" parent="1" source="OdSW-93VraJenFSrQYa_-4" target="OdSW-93VraJenFSrQYa_-18" edge="1">
          <mxGeometry relative="1" as="geometry" />
        </mxCell>
        <mxCell id="OdSW-93VraJenFSrQYa_-4" value="VegLab&lt;br&gt;(Application front)" style="rounded=0;whiteSpace=wrap;html=1;strokeWidth=2;fillColor=#fff2cc;strokeColor=#d6b656;" parent="1" vertex="1">
          <mxGeometry x="755" y="130" width="130" height="70" as="geometry" />
        </mxCell>
        <mxCell id="OdSW-93VraJenFSrQYa_-6" value="&lt;font style=&quot;font-size: 10px;&quot;&gt;&lt;br&gt;&lt;br&gt;Relevé&lt;/font&gt;" style="shape=note;whiteSpace=wrap;html=1;backgroundOutline=1;darkOpacity=0.05;fillColor=#dae8fc;strokeColor=#6c8ebf;" parent="1" vertex="1">
          <mxGeometry x="345" y="130" width="50" height="70" as="geometry" />
        </mxCell>
        <mxCell id="OdSW-93VraJenFSrQYa_-11" style="edgeStyle=orthogonalEdgeStyle;rounded=0;orthogonalLoop=1;jettySize=auto;html=1;entryX=0;entryY=0.5;entryDx=0;entryDy=0;" parent="1" source="OdSW-93VraJenFSrQYa_-7" target="OdSW-93VraJenFSrQYa_-8" edge="1">
          <mxGeometry relative="1" as="geometry" />
        </mxCell>
        <mxCell id="OdSW-93VraJenFSrQYa_-7" value="&lt;font style=&quot;font-size: 10px;&quot;&gt;&lt;br&gt;&lt;br&gt;VegLab&lt;br&gt;DTO&lt;/font&gt;" style="shape=note;whiteSpace=wrap;html=1;backgroundOutline=1;darkOpacity=0.05;fillColor=#dae8fc;strokeColor=#6c8ebf;" parent="1" vertex="1">
          <mxGeometry x="475" y="130" width="50" height="70" as="geometry" />
        </mxCell>
        <mxCell id="OdSW-93VraJenFSrQYa_-8" value="VegLab&lt;br&gt;API" style="rounded=0;whiteSpace=wrap;html=1;strokeWidth=2;fillColor=#fff2cc;strokeColor=#d6b656;" parent="1" vertex="1">
          <mxGeometry x="625" y="130" width="130" height="70" as="geometry" />
        </mxCell>
        <mxCell id="OdSW-93VraJenFSrQYa_-9" style="edgeStyle=orthogonalEdgeStyle;rounded=0;orthogonalLoop=1;jettySize=auto;html=1;entryX=0;entryY=0.5;entryDx=0;entryDy=0;entryPerimeter=0;" parent="1" source="OdSW-93VraJenFSrQYa_-3" target="OdSW-93VraJenFSrQYa_-6" edge="1">
          <mxGeometry relative="1" as="geometry" />
        </mxCell>
        <mxCell id="OdSW-93VraJenFSrQYa_-10" style="edgeStyle=orthogonalEdgeStyle;rounded=0;orthogonalLoop=1;jettySize=auto;html=1;entryX=0;entryY=0.5;entryDx=0;entryDy=0;entryPerimeter=0;" parent="1" source="OdSW-93VraJenFSrQYa_-6" target="OdSW-93VraJenFSrQYa_-7" edge="1">
          <mxGeometry relative="1" as="geometry" />
        </mxCell>
        <mxCell id="OdSW-93VraJenFSrQYa_-18" value="Travail des relevés dans VegLab..." style="whiteSpace=wrap;html=1;shape=mxgraph.basic.cloud_rect;fillColor=#fff2cc;strokeColor=#d6b656;" parent="1" vertex="1">
          <mxGeometry x="885" y="240" width="120" height="60" as="geometry" />
        </mxCell>
        <mxCell id="OdSW-93VraJenFSrQYa_-27" style="edgeStyle=orthogonalEdgeStyle;rounded=0;orthogonalLoop=1;jettySize=auto;html=1;" parent="1" source="OdSW-93VraJenFSrQYa_-18" edge="1">
          <mxGeometry relative="1" as="geometry">
            <mxPoint x="945" y="310" as="sourcePoint" />
            <mxPoint x="885" y="400" as="targetPoint" />
            <Array as="points">
              <mxPoint x="945" y="400" />
            </Array>
          </mxGeometry>
        </mxCell>
        <mxCell id="OdSW-93VraJenFSrQYa_-28" value="Certains évènements déclenchent l&#39;envoi d&#39;un message au SI source" style="text;html=1;strokeColor=none;fillColor=none;align=left;verticalAlign=middle;whiteSpace=wrap;rounded=0;" parent="1" vertex="1">
          <mxGeometry x="948" y="340" width="150" height="70" as="geometry" />
        </mxCell>
        <mxCell id="OdSW-93VraJenFSrQYa_-29" style="edgeStyle=orthogonalEdgeStyle;rounded=0;orthogonalLoop=1;jettySize=auto;html=1;entryX=0.25;entryY=1;entryDx=0;entryDy=0;exitX=0;exitY=0.5;exitDx=0;exitDy=0;exitPerimeter=0;" parent="1" source="OdSW-93VraJenFSrQYa_-30" target="OdSW-93VraJenFSrQYa_-3" edge="1">
          <mxGeometry relative="1" as="geometry">
            <mxPoint x="660" y="400" as="sourcePoint" />
            <mxPoint x="167.5" y="224" as="targetPoint" />
          </mxGeometry>
        </mxCell>
        <mxCell id="OdSW-93VraJenFSrQYa_-30" value="&lt;font style=&quot;font-size: 10px;&quot;&gt;Message&lt;/font&gt;" style="whiteSpace=wrap;html=1;shape=mxgraph.basic.document;fillColor=#fff2cc;strokeColor=#d6b656;" parent="1" vertex="1">
          <mxGeometry x="565" y="380" width="50" height="40" as="geometry" />
        </mxCell>
        <mxCell id="OdSW-93VraJenFSrQYa_-32" value="&lt;font style=&quot;font-size: 10px;&quot;&gt;Traitement du message&lt;/font&gt;" style="shape=step;perimeter=stepPerimeter;whiteSpace=wrap;html=1;fixedSize=1;size=15;direction=west;fillColor=#dae8fc;strokeColor=#6c8ebf;" parent="1" vertex="1">
          <mxGeometry x="295" y="380" width="155" height="40" as="geometry" />
        </mxCell>
        <mxCell id="OdSW-93VraJenFSrQYa_-35" value="&lt;font size=&quot;1&quot; style=&quot;&quot;&gt;&lt;b style=&quot;font-size: 16px;&quot;&gt;Échange de données (relevés) entre un SI externe et VegLab&lt;/b&gt;&lt;/font&gt;" style="text;html=1;strokeColor=none;fillColor=none;align=center;verticalAlign=middle;whiteSpace=wrap;rounded=0;" parent="1" vertex="1">
          <mxGeometry x="105" y="30" width="905" height="30" as="geometry" />
        </mxCell>
        <mxCell id="OdSW-93VraJenFSrQYa_-36" value="Emprise du SI :&lt;br&gt;- Selection des données échangées (VegLab ne moisonne pas les SI externes)&lt;br&gt;- Transformation au &quot;format pivot&quot; (DTO)&lt;br&gt;- Réception et traitement des messages en provenance de VegLab" style="text;html=1;strokeColor=none;fillColor=none;align=left;verticalAlign=middle;whiteSpace=wrap;rounded=0;" parent="1" vertex="1">
          <mxGeometry x="105" y="500" width="450" height="70" as="geometry" />
        </mxCell>
        <mxCell id="OdSW-93VraJenFSrQYa_-37" value="" style="endArrow=none;html=1;rounded=0;" parent="1" edge="1">
          <mxGeometry width="50" height="50" relative="1" as="geometry">
            <mxPoint x="80" y="600" as="sourcePoint" />
            <mxPoint x="1120" y="600" as="targetPoint" />
          </mxGeometry>
        </mxCell>
        <mxCell id="OdSW-93VraJenFSrQYa_-38" value="L&#39;échange de données nécessite des référentiels partagés :&lt;br&gt;&lt;font color=&quot;#009900&quot;&gt;✔&lt;/font&gt;&amp;nbsp;flore (TAXREF) : ok prêt&lt;br&gt;&lt;font color=&quot;#009900&quot;&gt;✔&lt;/font&gt;&amp;nbsp;végétation (VegLab est multi-référentiels) : ok prêt mais pas encore de référentiel national&lt;br&gt;&lt;font color=&quot;#cc0000&quot;&gt;✘&lt;/font&gt; observateurs/organismes : non disponible" style="text;html=1;strokeColor=none;fillColor=none;align=left;verticalAlign=middle;whiteSpace=wrap;rounded=0;" parent="1" vertex="1">
          <mxGeometry x="105" y="610" width="1015" height="60" as="geometry" />
        </mxCell>
        <mxCell id="OdSW-93VraJenFSrQYa_-22" value="&lt;font style=&quot;font-size: 12px;&quot;&gt;Modification identification relevé&lt;/font&gt;" style="html=1;shape=mxgraph.infographic.ribbonSimple;notch1=20;notch2=0;align=center;verticalAlign=middle;fontSize=14;fontStyle=0;flipH=1;fillColor=#fff2cc;whiteSpace=wrap;strokeColor=#d6b656;" parent="1" vertex="1">
          <mxGeometry x="665" y="330" width="220" height="40" as="geometry" />
        </mxCell>
        <mxCell id="OdSW-93VraJenFSrQYa_-23" value="&lt;font style=&quot;font-size: 12px;&quot;&gt;Ajout identification relevé&lt;/font&gt;" style="html=1;shape=mxgraph.infographic.ribbonSimple;notch1=20;notch2=0;align=center;verticalAlign=middle;fontSize=14;fontStyle=0;flipH=1;fillColor=#fff2cc;whiteSpace=wrap;strokeColor=#d6b656;" parent="1" vertex="1">
          <mxGeometry x="665" y="380" width="220" height="40" as="geometry" />
        </mxCell>
        <mxCell id="OdSW-93VraJenFSrQYa_-40" value="&lt;font style=&quot;font-size: 12px;&quot;&gt;&lt;i&gt;... autres évènements à définir&lt;/i&gt;&lt;/font&gt;" style="html=1;shape=mxgraph.infographic.ribbonSimple;notch1=20;notch2=0;align=center;verticalAlign=middle;fontSize=14;fontStyle=0;flipH=1;fillColor=#fff2cc;whiteSpace=wrap;strokeColor=#d6b656;" parent="1" vertex="1">
          <mxGeometry x="665" y="430" width="220" height="40" as="geometry" />
        </mxCell>
        <mxCell id="OdSW-93VraJenFSrQYa_-42" style="edgeStyle=orthogonalEdgeStyle;rounded=0;orthogonalLoop=1;jettySize=auto;html=1;entryX=0.5;entryY=0;entryDx=0;entryDy=0;entryPerimeter=0;" parent="1" source="OdSW-93VraJenFSrQYa_-22" target="OdSW-93VraJenFSrQYa_-30" edge="1">
          <mxGeometry relative="1" as="geometry" />
        </mxCell>
        <mxCell id="OdSW-93VraJenFSrQYa_-43" style="edgeStyle=orthogonalEdgeStyle;rounded=0;orthogonalLoop=1;jettySize=auto;html=1;entryX=1;entryY=0.5;entryDx=0;entryDy=0;entryPerimeter=0;" parent="1" source="OdSW-93VraJenFSrQYa_-23" target="OdSW-93VraJenFSrQYa_-30" edge="1">
          <mxGeometry relative="1" as="geometry" />
        </mxCell>
        <mxCell id="OdSW-93VraJenFSrQYa_-44" style="edgeStyle=orthogonalEdgeStyle;rounded=0;orthogonalLoop=1;jettySize=auto;html=1;entryX=0.5;entryY=1;entryDx=0;entryDy=0;entryPerimeter=0;" parent="1" source="OdSW-93VraJenFSrQYa_-40" target="OdSW-93VraJenFSrQYa_-30" edge="1">
          <mxGeometry relative="1" as="geometry" />
        </mxCell>
      </root>
    </mxGraphModel>
  </diagram>
</mxfile>
